simulation/qsim/ex03.msim.vcd
$comment
	File created using the following command:
		vcd file ex03.msim.vcd -direction
$end
$date
	Sat Apr 30 10:54:51 2022
$end
$version
	ModelSim Version 10.1d
$end
$timescale
	1ps
$end
$scope module ex03_vlg_vec_tst $end
$var reg 1 ! A $end
$var reg 1 " B $end
$var reg 1 # C $end
$var wire 1 $ Borrow $end
$var wire 1 % Diff $end
$var wire 1 & sampler $end
$scope module i1 $end
$var wire 1 ' gnd $end
$var wire 1 ( vcc $end
$var wire 1 ) unknown $end
$var tri1 1 * devclrn $end
$var tri1 1 + devpor $end
$var tri1 1 , devoe $end
$var wire 1 - Diff~output_o $end
$var wire 1 . Borrow~output_o $end
$var wire 1 / A~input_o $end
$var wire 1 0 B~input_o $end
$var wire 1 1 C~input_o $end
$var wire 1 2 Diff~0_combout $end
$var wire 1 3 Borrow~0_combout $end
$upscope $end
$upscope $end
$enddefinitions $end
#0
$dumpvars
0!
0"
0#
0$
0%
x&
0'
1(
x)
1*
1+
1,
0-
0.
0/
00
01
02
03
$end
#80000
1#
11
0&
13
12
1.
1-
1$
1%
#160000
1"
0#
10
01
1&
#240000
1#
11
0&
02
0-
0%
#320000
1!
0"
0#
1/
00
01
1&
03
12
0.
1-
0$
1%
#400000
1#
11
0&
02
0-
0%
#480000
1"
0#
10
01
1&
#560000
1#
11
0&
13
12
1.
1-
1$
1%
#640000
0!
0"
0#
0/
00
01
1&
03
02
0.
0-
0$
0%
